Afghanistan,Kaboul
Afrique du Sud,Bloemfontein
Albanie,Tirana
Algérie,Alger
Allemagne,Berlin
Andorre,Andorre-la-Vieille
Angola,Luanda
Antigua-et-Barbuda,Saint John's
Arabie saoudite,Riyad
Argentine,Buenos Aires
Arménie,Erevan
Australie,Canberra
Autriche,Vienne
Azerbaïdjan,Bakou
Bahamas,Nassau
Bahreïn,Manama
Bangladesh,Dhaka
Barbade,Bridgetown
Belize,Belmopan
Bénin,Porto-Novo
Bhoutan,Thimphou
Biélorussie,Minsk
Birmanie,Naypyidaw
Bolivie,Sucre
Bosnie-Herzégovine,Sarajevo
Botswana,Gaborone
Brésil,Brasilia
Brunei,Bandar Seri Begawan
Bulgarie,Sofia
Belgique,Bruxelles
Burkina Faso,Ouagadougou
Burundi,Bujumbura
Cambodge,Phnom Penh
Cameroun,Yaoundé
Canada,Ottawa
Cap-Vert,Praia
Chili,Santiago
Chine,Pékin
Chypre,Nicosia
Cocos,West Island
Colombie,Bogota
Comores,Moroni
Corée du Nord,Pyongyang
Corée du Sud,Séoul
Costa Rica,San José
Côte d'Ivoire,Yamoussoukro
Croatie,Zagreb
Cuba,La Havane
Danemark,Copenhague
Djibouti,Djibouti
Dominique,Roseau
Égypte,Le Caire
Émirats Arabes Unis,Abou Dabi
Équateur,Quito
Érythrée,Asmara
Espagne,Madrid
Estonie,Tallinn
États-Unis,Washington
Éthiopie,Addis-Abeba
Fidji,Suva
Finlande,Helsinki
France,Paris
Gabon,Libreville
Gambie,Banjul
Géorgie,Tbilissi
Ghana,Accra
Grèce,Athènes
Grenade,Saint-Georges
Guatemala,Guatemala
Guinée,Conakry
Guinée Équatoriale,Malabo
Guinée-Bissau,Bissau
Guyana,Georgetown
Haïti,Port-au-Prince
Honduras,Tegucigalpa
Hongrie,Budapest
Turques-et-Caïques,Cockburn Town
Inde,New Delhi
Indonésie,Jakarta
Irak,Bagdad
Iran,Téhéran
Irlande,Dublin
Islande,Reykjavik
Israel,Jerusalem
Italie,Rome
Jamaïque,Kingston
Japon,Tokyo
Jordanie,Amman
Kazakhstan,Astana
Kenya,Nairobi
Kirghizistan,Bichkek
Kiribati,Tarawa
Koweït,Koweït
Laos,Vientiane
Lesotho,Maseru
Lettonie,Riga
Liban,Beyrouth
Libéria,Monrovia
Libye,Tripoli
Liechtenstein,Vaduz
Lituanie,Vilnius
Luxembourg,Luxembourg
Macédoine,Skopje
Madagascar,Tananarive
Malaisie,Kuala Lumpur
Malawi,Lilongwe
Maldives,Malé
Mali,Bamako
Malte,La Valette
Maroc,Rabat
Marshall,Delap-Uliga-Darrit
Maurice,Port-Louis
Mauritanie,Nouakchott
Mexique,Mexico
Micronésie,Palikir
Moldavie,Chisinau
Monaco,Monaco
Mongolie,Oulan-Bator
Monténégro,Podgorica
Mozambique,Maputo
Namibie,Windhoek
Népal,Katmandou
Nicaragua,Managua
Niger,Niamey
Nigeria,Abuja
Norvège,Oslo
Nouvelle-Zélande,Wellington
Oman,Mascate
Ouganda,Kampala
Ouzbékistan,Tachkent
Pakistan,Islamabad
Palaos,Melekeok
Panama,Panama
Papouasie-Nouvelle-Guinée,Port Moresby
Paraguay,Asuncion
Pays-Bas,Amsterdam
Pérou,Lima
Philippines,Manille
Pologne,Varsovie
Portugal,Lisbonne
Qatar,Doha
République centrafricaine,Bangui
République démocratique du Congo,Kinshasa
République dominicaine,Saint-Domingue
République du Congo,Brazzaville
République tchèque,Prague
Roumanie,Bucarest
Royaume-Uni,Londres
Russie,Moscou
Rwanda,Kigali
Saint-Christophe-et-Niévès,Basseterre
Saint-Marin,Ville de Saint-Marin
Saint-Vincent-et-les Grenadines,Kingstown
Sainte-Lucie,Castries
Salomon,Honiara
Salvador,San Salvador
Samoa,Apia
Sao Tomé-et-Principe,Sao Tomé
Sénégal,Dakar
Serbie,Belgrade
Seychelles,Victoria
Sierra Leone,Freetown
Singapour,Singapour
Slovaquie,Bratislava
Slovénie,Ljubljana
Somalie,Mogadiscio
Soudan,Khartoum
Sri Lanka,Sri Jayawardenepura Kotte
Suède,Stockholm
Suisse,Berne
Suriname,Paramaribo
Swaziland,Mbabane
Syrie,Damas
Tadjikistan,Douchanbé
Tanzanie,Dodoma
Tchad,Ndjamena
Thaïlande,Bangkok
Timor oriental,Dili
Togo,Lomé
Tonga,Nuku'alofa
Trinité-et-Tobago,Port-d'Espagne
Tunisie,Tunis
Turkménistan,Achgabat
Turquie,Ankara
Tuvalu,Funafuti
Ukraine,Kiev
Uruguay,Montevideo
Vanuatu,Port-Vila
Vatican,Vatican
Venezuela,Caracas
Vietnam,Hanoï
Yémen,Sanaa
Zambie,Lusaka
Zimbabwe,Harare